Comparative Analysis of Wearable NeuroSkin and Non-Wearable GAITRite Sensor Systems for Gait Assessment in Healthy People
…
# Append average of Left and Right
df %<>% 
  gather(key = device, value = value, GAITRite, NeuroSkin) %>% 
  group_by(id, metric, device) %>% 
  summarise(value = mean(value)) %>% 
  mutate(side = "Avg") %>% 
  spread(device, value) %>%
  ungroup %>% 
  bind_rows(df) %>% 
  distinct

df %>% group_by(metric, side) %>% summarise(across(is.numeric, mean))

# A tibble: 37 × 4
# Groups:   metric [15]
   metric               side  GAITRite NeuroSkin
   <chr>                <chr>    <dbl>     <dbl>
 1 Ambulation_time      Avg       4.41      4.59
 2 Cadence              Avg     104.      104.  
 3 Cycle_time           Avg       1.15      1.16
 4 Cycle_time           Left      1.15      1.16
 5 Cycle_time           Right     1.15      1.15
 6 Distance             Avg     533.      532.  
 7 Double_support_phase Avg      24.5      26.8 
 8 Double_support_phase Left     24.6      26.8 
 9 Double_support_phase Right    24.5      26.8 
10 Single_support_phase Avg      37.2      36.9 
# ℹ 27 more rows
…
